{
    "blocks": [
        {
            "id": "6DAAF763-708E-423C-95E4-E8D29671CCCA",
            "type": "StartBlock",
            "x": 100,
            "y": 100,
            "disabled": false,
            "name": "Start",
            "displayName": "Start",
            "comment": "",
            "childId": "8EDAD0CE-0F6B-4DE9-A8E5-C94B4BA6DC74",
            "inputs": [],
            "settings": [],
            "logo": null
        },
        {
            "id": "86C00D9F-E40E-4F5D-97CA-FAFAFFE15805",
            "type": "ShowBlock",
            "x": 99,
            "y": 192,
            "disabled": false,
            "name": "show",
            "displayName": "Output",
            "comment": "",
            "childId": null,
            "inputs": [
                {
                    "id": "input",
                    "value": "Hi {$.inputs.'First Name'} {$.inputs.'Last Name'}!",
                    "type": "string",
                    "structure": []
                }
            ],
            "settings": [
                {
                    "id": "display_mode",
                    "value": "add",
                    "type": "select",
                    "structure": []
                }
            ]
        },
        {
            "id": "8EDAD0CE-0F6B-4DE9-A8E5-C94B4BA6DC74",
            "type": "FormBlock",
            "x": 101,
            "y": 193,
            "disabled": false,
            "name": "inputs",
            "displayName": "Inputs",
            "comment": "",
            "childId": "86C00D9F-E40E-4F5D-97CA-FAFAFFE15805",
            "inputs": [],
            "settings": [
                {
                    "id": "",
                    "value": "no",
                    "type": "select",
                    "structure": {}
                }
            ],
            "form": [
                {
                    "id": "inputs-input-0",
                    "label": "First Name",
                    "field_name": "first_name",
                    "helpText": "",
                    "type": "input",
                    "value": "Daan",
                    "isRequired": true,
                    "options": {},
                    "order": 0
                },
                {
                    "id": "inputs-input-1",
                    "label": "Last Name",
                    "field_name": "last_name",
                    "helpText": "",
                    "type": "input",
                    "value": "Wijns",
                    "isRequired": true,
                    "options": {},
                    "order": 1
                }
            ],
            "persistData": "no"
        }
    ],
    "variables": []
}
